# --> Including file '/afs/cern.ch/work/m/marcocle/workspace/Gaudi.v23r2/GaudiExamples/options/Properties.opts'
# --> Including file '/afs/cern.ch/work/m/marcocle/workspace/Gaudi.v23r2/GaudiExamples/options/Common.opts'
# --> Including file '/afs/cern.ch/work/m/marcocle/workspace/Gaudi.v23r2/GaudiExamples/options/Services.opts'
# AuditorSvc.Auditors = { "ChronoAuditor" };
# <-- End of file '/afs/cern.ch/work/m/marcocle/workspace/Gaudi.v23r2/GaudiExamples/options/Services.opts'
# ApplicationMgr.StatusCodeCheck = true;
# <-- End of file '/afs/cern.ch/work/m/marcocle/workspace/Gaudi.v23r2/GaudiExamples/options/Common.opts'
# --> Including file '/afs/cern.ch/work/m/marcocle/workspace/Gaudi.v23r2/GaudiExamples/options/units.opts'
# <-- End of file '/afs/cern.ch/work/m/marcocle/workspace/Gaudi.v23r2/GaudiExamples/options/units.opts'
# --> Including file '/afs/cern.ch/work/m/marcocle/workspace/Gaudi.v23r2/GaudiExamples/options/optsub1/dummy1.opts'
# Dummy1.Property=true;
# --> Including file '/afs/cern.ch/work/m/marcocle/workspace/Gaudi.v23r2/GaudiExamples/options/optsub2/dummy2.opts'
# Dummy2.Property=true;
# <-- End of file '/afs/cern.ch/work/m/marcocle/workspace/Gaudi.v23r2/GaudiExamples/options/optsub2/dummy2.opts'
# <-- End of file '/afs/cern.ch/work/m/marcocle/workspace/Gaudi.v23r2/GaudiExamples/options/optsub1/dummy1.opts'
# ApplicationMgr.TopAlg  = {   "PropertyAlg" };
# ApplicationMgr.TopAlg  += {   "PropertyAlg", "PropertyProxy" };
# ApplicationMgr.TopAlg  -=  {  "PropertyAlg" };
# MessageSvc.OutputLevel  = 3;
# ApplicationMgr.EvtMax   = 1;
# ApplicationMgr.EvtSel   = "NONE";
# ApplicationMgr.HistogramPersistency = "NONE";
# PropertyAlg.OutputLevel = 3;
# PropertyAlg.Int    = 101;
# PropertyAlg.Int64  = 4294967296;
# PropertyAlg.UInt64 = 4294967296;
# PropertyAlg.Double = 101.1e+10;
# PropertyAlg.String = "hundred one";
# PropertyAlg.Bool   = false;
# PropertyAlg.IntArray    = { 1, 2, 3, 5};
# PropertyAlg.Int64Array  = {4294967296};
# PropertyAlg.UInt64Array = {4294967296};
# PropertyAlg.DoubleArray = { -11.0 , 2., 3.3, 0.4e-03 };
# PropertyAlg.StringArray = {"one", "two", "four" };
# PropertyAlg.BoolArray   = {false, true, false };
# PropertyAlg.EmptyArray  = { };
# PropertyAlg.DoubleArrayWithUnits    = { 1.1 * m2 , -2.*cm, 3.3*cm, 0.4e-03 * m };
# PropertyAlg.DoubleArrayWithoutUnits = { 1100000.0 , -20., 33.0, 0.4 };
# PropertyAlg.PInt    = 101;
# PropertyAlg.PDouble = 101.E5;
# PropertyAlg.PString = "hundred one";
# PropertyAlg.PBool   = true;
# PropertyAlg.PIntArray    = { 1, 2, 3, 5};
# PropertyAlg.PDoubleArray = {1.1 , 2., 3.3 };
# PropertyAlg.PStringArray = {"one", "two", "four" };
# PropertyAlg.PBoolArray   = { true, false, true, false };
# PropertyAlg.IntPairArray = [ (1,2), (3,4), (5,6) ];
# PropertyAlg.DoublePairArray = [ (1.1,2.1), (2.3,4.5), (5.6, 6.7) ];
# PropertyProxy.String = "This is set by the proxy";
# MessageSvc.setDebug += {"EventLoopMgr"};
# MessageSvc.setVerbose  += {"MsgTest"};
# MessageSvc.setWarning  += {"MsgTest"};
# <-- End of file '/afs/cern.ch/work/m/marcocle/workspace/Gaudi.v23r2/GaudiExamples/options/Properties.opts'
ApplicationMgr    SUCCESS
====================================================================================================================================
                                                   Welcome to ApplicationMgr (GaudiCoreSvc v1r1)
                                          running on lxplus445.cern.ch on Thu Jun 28 15:31:07 2012
====================================================================================================================================
ApplicationMgr       INFO Application Manager Configured successfully
StatusCodeSvc        INFO initialize
EventLoopMgr        DEBUG Property update for OutputLevel : new value = 2
EventLoopMgr        DEBUG Service base class initialized successfully
EventLoopMgr        DEBUG Creating Top Algorithm PropertyAlg with name PropertyAlg
PropertyAlg          INFO Before Initialization......
PropertyAlg          INFO Int    = 100
PropertyAlg          INFO Int64  = 100
PropertyAlg          INFO UInt64 = 100
PropertyAlg          INFO Double = 100
PropertyAlg          INFO String = hundred
PropertyAlg          INFO Bool   = 1
PropertyAlg          INFO IntArray    = []
PropertyAlg          INFO Int64Array  = []
PropertyAlg          INFO UInt64Array = []
PropertyAlg          INFO DoubleArray = []
PropertyAlg          INFO StringArray = []
PropertyAlg          INFO BoolArray   = []
PropertyAlg          INFO EmptyArray  = []
PropertyAlg          INFO IntPairArray  = []
PropertyAlg          INFO DoublePairArray  = []
PropertyAlg          INFO PInt    =  'PInt':100
PropertyAlg          INFO Read handler called for property:  'PDouble':100.00000
PropertyAlg          INFO PDouble =  'PDouble':100.00000
PropertyAlg          INFO PString =  'PString':hundred
PropertyAlg          INFO PBool   =  'PBool':False
PropertyAlg          INFO PIntArray    =  'PIntArray':[  ]
PropertyAlg          INFO PDoubleArray =  'PDoubleArray':[  ]
PropertyAlg          INFO PStringArray =  'PStringArray':[  ]
PropertyAlg          INFO PBoolArray   =  'PBoolArray':[  ]
EventLoopMgr        DEBUG Creating Top Algorithm PropertyProxy with name PropertyProxy
PropertyAlg          INFO Read handler called for property:  'PDouble':10100000.
PropertyAlg          INFO Update handler called for property:  'PDouble':10100000.
PropertyAlg          INFO After Initialization having read the JobOptions file...
PropertyAlg          INFO Int    = 101
PropertyAlg          INFO Int64  = 4294967296
PropertyAlg          INFO UInt64 = 4294967296
PropertyAlg          INFO Double = 1.011e+12
PropertyAlg          INFO String = hundred one
PropertyAlg          INFO Bool   = 0
PropertyAlg          INFO IntArray    = [1, 2, 3, 5]
PropertyAlg          INFO Int64Array  = [4294967296]
PropertyAlg          INFO UInt64Array = [4294967296]
PropertyAlg          INFO DoubleArray = [-11, 2, 3.3, 0.0004]
PropertyAlg          INFO StringArray = [one, two, four]
PropertyAlg          INFO BoolArray   = [0, 1, 0]
PropertyAlg          INFO EmptyArray  = []
PropertyAlg          INFO IntPairArray  = [(1, 2), (3, 4), (5, 6)]
PropertyAlg          INFO DoublePairArray  = [(1.1, 2.1), (2.3, 4.5), (5.6, 6.7)]
PropertyAlg          INFO PInt    =  'PInt':101
PropertyAlg          INFO Read handler called for property:  'PDouble':10100000.
PropertyAlg          INFO PDouble =  'PDouble':10100000.
PropertyAlg          INFO PString =  'PString':hundred one
PropertyAlg          INFO PBool   =  'PBool':True
PropertyAlg          INFO PIntArray    =  'PIntArray':[ 1 , 2 , 3 , 5 ]
PropertyAlg          INFO PDoubleArray =  'PDoubleArray':[ 1.1000000 , 2.0000000 , 3.3000000 ]
PropertyAlg          INFO PStringArray =  'PStringArray':[ 'one' , 'two' , 'four' ]
PropertyAlg          INFO PBoolArray   =  'PBoolArray':[ True , False , True , False ]
PropertyAlg          INFO DoubleArrayWithUnits[0] = 1.1e+06
PropertyAlg          INFO DoubleArrayWithUnits[1] = -20
PropertyAlg          INFO DoubleArrayWithUnits[2] = 33
PropertyAlg          INFO DoubleArrayWithUnits[3] = 0.4
PropertyAlg          INFO ===============Checking Property Verifier ===============
PropertyAlg          INFO Playing with PropertyVerifiers...
PropertyAlg          INFO PInt= 155 [should be 155, bounds are 0, 200]
PropertyAlg          INFO Got an exception when setting a value outside bounds
PropertyAlg          INFO PInt=  'PInt':155 [should be 155]
PropertyAlg          INFO ===============Checking Property CallBaks ===============
PropertyAlg          INFO Accessing PDouble ...
PropertyAlg          INFO Read handler called for property:  'PDouble':10100000.
PropertyAlg          INFO Value obtained is: 1.01e+07
PropertyAlg          INFO Updating PDouble ...
PropertyAlg          INFO Read handler called for property:  'PDouble':999.00000
PropertyAlg          INFO Update handler called for property:  'PDouble':999.00000
PropertyAlg          INFO ==========Checking Accesing Properties by string=========
PropertyAlg          INFO  Got property ApplicationMgr.ExtSvc = [  ];
DetectorDataSvc      INFO Detector description not requested to be loaded
PropertyAlg          INFO  Set property ApplicationMgr.ExtSvc =  ["EvtDataSvc/EventDataSvc", "DetDataSvc/DetectorDataSvc"];
PropertyAlg          INFO  Got property ApplicationMgr.ExtSvc = [ 'EvtDataSvc/EventDataSvc' , 'DetDataSvc/DetectorDataSvc' ];
PropertyAlg          INFO  Set property ApplicationMgr.ExtSvc =  [ 'EventDataSvc', 'DetectorDataSvc'];
PropertyAlg          INFO  Got property ApplicationMgr.ExtSvc = [ 'EventDataSvc' , 'DetectorDataSvc' ];
PropertyAlg         ERROR PBool can not be set to T
PropertyAlg         ERROR Bool can not be set to T
PropertyAlg         ERROR PBool can not be set to F
PropertyAlg         ERROR Bool can not be set to F
PropertyAlg         ERROR PBool can not be set to 10
PropertyAlg         ERROR Bool can not be set to 10
MsgTest           WARNING This should be printed if threshold is WARNING
MsgTest             ERROR This should be printed if threshold is ERROR
MsgTest             FATAL This should be printed if threshold is FATAL
MsgTest           SUCCESS This should be printed ALWAYS
PropertyAlg          INFO =================================================
PropertyAlg          INFO Dump of the property catalogue....
PropertyAlg          INFO  Properties of AuditorSvc: Auditors
PropertyAlg          INFO  Properties of Dummy1: Property
PropertyAlg          INFO  Properties of Dummy2: Property
PropertyAlg          INFO  Properties of PropertyAlg: DoubleArray, Int64Array, EmptyArray, Bool, UInt64Array, StringArray, String, DoublePairArray, PDoubleArray, PDouble, PInt, BoolArray, Double, PStringArray, OutputLevel, Int64, PBoolArray, IntArray, PBool, UInt64, IntPairArray, PIntArray, Int, DoubleArrayWithUnits, PString, DoubleArrayWithoutUnits
PropertyAlg          INFO  Properties of PropertyProxy: String
PropertyAlg          INFO =================================================
PropertyAlg          INFO Changed property DoubleArray in catalogue
PropertyAlg          INFO Read handler called for property:  'PDouble':10100000.
PropertyAlg          INFO Update handler called for property:  'PDouble':10100000.
JobOptionsSvc       ERROR Unable to set the property 'DoubleArray' of 'PropertyAlg'. Check option and algorithm names, type and bounds.
PropertyAlg          INFO DoubleArray = [-11, 2, 3.3, 0.0004]
PropertyAlg          INFO =================================================
PropertyProxy        INFO  Got property this.RInt = 101;
PropertyProxy        INFO  Set property this.RInt = 1001;
PropertyProxy        INFO  Got property this.RInt = 101;
PropertyProxy        INFO  Got property this.String = This is set by the proxy;
EventLoopMgr      WARNING Unable to locate service "EventSelector"
EventLoopMgr      WARNING No events will be processed from external input.
HistogramPersis...WARNING Histograms saving not required.
ApplicationMgr       INFO Application Manager Initialized successfully
ApplicationMgr       INFO Application Manager Started successfully
PropertyAlg          INFO executing....
PropertyProxy        INFO executing....
ApplicationMgr       INFO Application Manager Stopped successfully
PropertyAlg          INFO finalizing....
PropertyProxy        INFO finalizing....
EventLoopMgr         INFO Histograms converted successfully according to request.
ApplicationMgr       INFO Application Manager Finalized successfully
ApplicationMgr       INFO Application Manager Terminated successfully
